18.0	1.0
25.0	0.999322951929587
124.0	0.998645903859174
126.0	0.997968855788761
135.0	0.997291807718348
140.0	0.996614759647935
142.0	0.995937711577522
147.0	0.995260663507109
147.0	0.995260663507109
151.0	0.993906567366283
240.0	0.99322951929587
242.0	0.992552471225457
246.0	0.991875423155044
247.0	0.991198375084631
250.0	0.990521327014218
252.0	0.989844278943805
252.0	0.989844278943805
253.0	0.988490182802979
254.0	0.987813134732566
256.0	0.987136086662153
257.0	0.98645903859174
257.0	0.98645903859174
259.0	0.9851049424509141
262.0	0.984427894380501
263.0	0.983750846310088
263.0	0.983750846310088
276.0	0.982396750169262
283.0	0.9817197020988491
337.0	0.981042654028436
343.0	0.980365605958023
346.0	0.97968855788761
347.0	0.979011509817197
349.0	0.9783344617467841
352.0	0.977657413676371
352.0	0.977657413676371
353.0	0.976303317535545
353.0	0.976303317535545
355.0	0.9749492213947191
356.0	0.974272173324306
357.0	0.973595125253893
357.0	0.973595125253893
359.0	0.972241029113067
359.0	0.972241029113067
360.0	0.970886932972241
360.0	0.970886932972241
361.0	0.969532836831415
362.0	0.968855788761002
363.0	0.9681787406905891
363.0	0.9681787406905891
364.0	0.966824644549763
364.0	0.966824644549763
364.0	0.966824644549763
364.0	0.966824644549763
364.0	0.966824644549763
364.0	0.966824644549763
365.0	0.962762356127285
365.0	0.962762356127285
365.0	0.962762356127285
366.0	0.960731211916046
366.0	0.960731211916046
368.0	0.95937711577522
368.0	0.95937711577522
368.0	0.95937711577522
369.0	0.957345971563981
370.0	0.956668923493568
370.0	0.956668923493568
370.0	0.956668923493568
370.0	0.956668923493568
371.0	0.953960731211916
372.0	0.953283683141503
372.0	0.953283683141503
373.0	0.9519295870006771
374.0	0.9512525389302641
375.0	0.950575490859851
376.0	0.949898442789438
376.0	0.949898442789438
376.0	0.949898442789438
376.0	0.949898442789438
377.0	0.947190250507786
377.0	0.947190250507786
377.0	0.947190250507786
380.0	0.9451591062965471
380.0	0.9451591062965471
380.0	0.9451591062965471
383.0	0.943127962085308
383.0	0.943127962085308
383.0	0.943127962085308
383.0	0.943127962085308
385.0	0.940419769803656
386.0	0.939742721733243
386.0	0.939742721733243
389.0	0.9383886255924171
393.0	0.9377115775220041
396.0	0.937034529451591
453.0	0.936357481381178
454.0	0.9356804333107651
455.0	0.9350033852403521
463.0	0.9343263371699391
463.0	0.9343263371699391
465.0	0.932972241029113
465.0	0.932972241029113
465.0	0.932972241029113
466.0	0.9309410968178741
467.0	0.930264048747461
467.0	0.930264048747461
467.0	0.930264048747461
468.0	0.9282329045362221
468.0	0.9282329045362221
468.0	0.9282329045362221
469.0	0.926201760324983
471.0	0.9255247122545701
472.0	0.9248476641841571
473.0	0.9241706161137441
473.0	0.9241706161137441
473.0	0.9241706161137441
474.0	0.9221394719025051
474.0	0.9221394719025051
474.0	0.9221394719025051
475.0	0.920108327691266
475.0	0.920108327691266
475.0	0.920108327691266
475.0	0.920108327691266
476.0	0.9174001354096141
476.0	0.9174001354096141
476.0	0.9174001354096141
476.0	0.9174001354096141
477.0	0.9146919431279621
478.0	0.9140148950575491
478.0	0.9140148950575491
479.0	0.9126607989167231
479.0	0.9126607989167231
480.0	0.9113067027758971
482.0	0.9106296547054841
483.0	0.909952606635071
483.0	0.909952606635071
484.0	0.9085985104942451
484.0	0.9085985104942451
484.0	0.9085985104942451
484.0	0.9085985104942451
484.0	0.9085985104942451
485.0	0.9052132701421801
485.0	0.9052132701421801
485.0	0.9052132701421801
486.0	0.903182125930941
486.0	0.903182125930941
486.0	0.903182125930941
486.0	0.903182125930941
487.0	0.9004739336492891
487.0	0.9004739336492891
488.0	0.8991198375084631
488.0	0.8991198375084631
490.0	0.8977657413676371
490.0	0.8977657413676371
491.0	0.896411645226811
491.0	0.896411645226811
491.0	0.896411645226811
492.0	0.8943805010155721
492.0	0.8943805010155721
492.0	0.8943805010155721
492.0	0.8943805010155721
492.0	0.8943805010155721
493.0	0.8909952606635071
493.0	0.8909952606635071
493.0	0.8909952606635071
493.0	0.8909952606635071
494.0	0.8882870683818551
494.0	0.8882870683818551
494.0	0.8882870683818551
495.0	0.8862559241706162
495.0	0.8862559241706162
495.0	0.8862559241706162
496.0	0.8842247799593771
497.0	0.8835477318889641
497.0	0.8835477318889641
499.0	0.8821936357481381
500.0	0.8815165876777251
501.0	0.8808395396073121
501.0	0.8808395396073121
501.0	0.8808395396073121
503.0	0.8788083953960731
503.0	0.8788083953960731
504.0	0.8774542992552471
504.0	0.8774542992552471
504.0	0.8774542992552471
505.0	0.8754231550440081
506.0	0.8747461069735951
507.0	0.8740690589031821
510.0	0.8733920108327691
511.0	0.8727149627623562
512.0	0.8720379146919431
512.0	0.8720379146919431
518.0	0.8706838185511171
521.0	0.8700067704807042
523.0	0.8693297224102912
571.0	0.8686526743398781
573.0	0.8679756262694651
575.0	0.8672985781990521
579.0	0.8666215301286392
582.0	0.8659444820582262
583.0	0.8652674339878131
584.0	0.8645903859174001
584.0	0.8645903859174001
584.0	0.8645903859174001
585.0	0.8625592417061612
585.0	0.8625592417061612
586.0	0.8612051455653351
586.0	0.8612051455653351
586.0	0.8612051455653351
587.0	0.8591740013540962
587.0	0.8591740013540962
588.0	0.8578199052132701
589.0	0.8571428571428571
589.0	0.8571428571428571
590.0	0.8557887610020312
590.0	0.8557887610020312
593.0	0.8544346648612051
594.0	0.8537576167907921
594.0	0.8537576167907921
595.0	0.8524035206499662
596.0	0.8517264725795531
597.0	0.8510494245091401
597.0	0.8510494245091401
598.0	0.8496953283683142
598.0	0.8496953283683142
598.0	0.8496953283683142
599.0	0.8476641841570751
599.0	0.8476641841570751
600.0	0.8463100880162492
600.0	0.8463100880162492
600.0	0.8463100880162492
601.0	0.8442789438050101
602.0	0.8436018957345972
602.0	0.8436018957345972
602.0	0.8436018957345972
602.0	0.8436018957345972
603.0	0.8408937034529451
603.0	0.8408937034529451
604.0	0.8395396073121192
604.0	0.8395396073121192
605.0	0.8381855111712931
605.0	0.8381855111712931
605.0	0.8381855111712931
607.0	0.8361543669600542
608.0	0.8354773188896412
608.0	0.8354773188896412
608.0	0.8354773188896412
609.0	0.8334461746784022
609.0	0.8334461746784022
609.0	0.8334461746784022
609.0	0.8334461746784022
609.0	0.8334461746784022
610.0	0.8300609343263372
610.0	0.8300609343263372
611.0	0.8287068381855112
611.0	0.8287068381855112
612.0	0.8273527420446851
612.0	0.8273527420446851
613.0	0.8259986459038592
613.0	0.8259986459038592
614.0	0.8246445497630331
614.0	0.8246445497630331
615.0	0.8232904536222072
615.0	0.8232904536222072
615.0	0.8232904536222072
616.0	0.8212593094109681
617.0	0.8205822613405552
618.0	0.8199052132701422
618.0	0.8199052132701422
619.0	0.8185511171293162
619.0	0.8185511171293162
622.0	0.8171970209884902
622.0	0.8171970209884902
623.0	0.8158429248476642
623.0	0.8158429248476642
624.0	0.8144888287068381
624.0	0.8144888287068381
624.0	0.8144888287068381
624.0	0.8144888287068381
626.0	0.8117806364251862
628.0	0.8111035883547731
629.0	0.8104265402843602
629.0	0.8104265402843602
630.0	0.8090724441435342
632.0	0.8083953960731212
634.0	0.8077183480027081
640.0	0.8070412999322952
653.0	0.8063642518618822
653.0	0.8063642518618822
654.0	0.8050101557210562
674.0	0.8043331076506431
675.0	0.8036560595802302
689.0	0.8029790115098172
698.0	0.8023019634394042
698.0	0.8023019634394042
699.0	0.8009478672985783
699.0	0.8009478672985783
700.0	0.7995937711577522
701.0	0.7989167230873392
702.0	0.7982396750169262
703.0	0.7975626269465133
703.0	0.7975626269465133
704.0	0.7962085308056872
704.0	0.7962085308056872
705.0	0.7948544346648612
706.0	0.7941773865944483
706.0	0.7941773865944483
706.0	0.7941773865944483
707.0	0.7921462423832092
707.0	0.7921462423832092
707.0	0.7921462423832092
707.0	0.7921462423832092
708.0	0.7894380501015572
708.0	0.7894380501015572
708.0	0.7894380501015572
708.0	0.7894380501015572
708.0	0.7894380501015572
708.0	0.7894380501015572
710.0	0.7853757616790792
711.0	0.7846987136086662
712.0	0.7840216655382533
712.0	0.7840216655382533
713.0	0.7826675693974272
716.0	0.7819905213270142
716.0	0.7819905213270142
717.0	0.7806364251861883
718.0	0.7799593771157752
718.0	0.7799593771157752
718.0	0.7799593771157752
719.0	0.7779282329045363
719.0	0.7779282329045363
719.0	0.7779282329045363
720.0	0.7758970886932972
720.0	0.7758970886932972
722.0	0.7745429925524713
723.0	0.7738659444820583
723.0	0.7738659444820583
724.0	0.7725118483412322
724.0	0.7725118483412322
725.0	0.7711577522004063
726.0	0.7704807041299933
727.0	0.7698036560595802
727.0	0.7698036560595802
728.0	0.7684495599187542
729.0	0.7677725118483413
730.0	0.7670954637779283
730.0	0.7670954637779283
731.0	0.7657413676371022
731.0	0.7657413676371022
731.0	0.7657413676371022
731.0	0.7657413676371022
732.0	0.7630331753554502
733.0	0.7623561272850372
734.0	0.7616790792146242
734.0	0.7616790792146242
736.0	0.7603249830737983
736.0	0.7603249830737983
737.0	0.7589708869329722
737.0	0.7589708869329722
738.0	0.7576167907921463
739.0	0.7569397427217333
740.0	0.7562626946513202
741.0	0.7555856465809072
741.0	0.7555856465809072
741.0	0.7555856465809072
742.0	0.7535545023696683
743.0	0.7528774542992552
743.0	0.7528774542992552
744.0	0.7515233581584293
744.0	0.7515233581584293
750.0	0.7501692620176033
751.0	0.7494922139471902
751.0	0.7494922139471902
752.0	0.7481381178063643
753.0	0.7474610697359513
755.0	0.7467840216655383
755.0	0.7467840216655383
756.0	0.7454299255247122
765.0	0.7447528774542993
768.0	0.7440758293838863
777.0	0.7433987813134733
803.0	0.7427217332430602
809.0	0.7420446851726472
816.0	0.7413676371022343
816.0	0.7413676371022343
817.0	0.7400135409614083
818.0	0.7393364928909952
818.0	0.7393364928909952
821.0	0.7379823967501693
822.0	0.7373053486797563
822.0	0.7373053486797563
824.0	0.7359512525389302
825.0	0.7352742044685172
826.0	0.7345971563981043
826.0	0.7345971563981043
827.0	0.7332430602572783
827.0	0.7332430602572783
827.0	0.7332430602572783
827.0	0.7332430602572783
827.0	0.7332430602572783
828.0	0.7298578199052133
828.0	0.7298578199052133
828.0	0.7298578199052133
829.0	0.7278266756939743
829.0	0.7278266756939743
829.0	0.7278266756939743
830.0	0.7257955314827352
831.0	0.7251184834123223
831.0	0.7251184834123223
831.0	0.7251184834123223
831.0	0.7251184834123223
832.0	0.7224102911306702
832.0	0.7224102911306702
832.0	0.7224102911306702
833.0	0.7203791469194313
834.0	0.7197020988490183
834.0	0.7197020988490183
834.0	0.7197020988490183
835.0	0.7176709546377793
835.0	0.7176709546377793
835.0	0.7176709546377793
836.0	0.7156398104265402
836.0	0.7156398104265402
838.0	0.7142857142857143
838.0	0.7142857142857143
838.0	0.7142857142857143
840.0	0.7122545700744752
840.0	0.7122545700744752
841.0	0.7109004739336493
842.0	0.7102234258632363
842.0	0.7102234258632363
842.0	0.7102234258632363
843.0	0.7081922816519973
844.0	0.7075152335815843
845.0	0.7068381855111713
845.0	0.7068381855111713
846.0	0.7054840893703453
847.0	0.7048070412999323
847.0	0.7048070412999323
848.0	0.7034529451591063
850.0	0.7027758970886933
850.0	0.7027758970886933
850.0	0.7027758970886933
851.0	0.7007447528774543
852.0	0.7000677048070413
855.0	0.6993906567366283
855.0	0.6993906567366283
856.0	0.6980365605958023
859.0	0.6973595125253893
862.0	0.6966824644549763
863.0	0.6960054163845633
864.0	0.6953283683141503
864.0	0.6953283683141503
865.0	0.6939742721733243
868.0	0.6932972241029113
869.0	0.6926201760324983
870.0	0.6919431279620853
871.0	0.6912660798916723
872.0	0.6905890318212593
874.0	0.6899119837508463
877.0	0.6892349356804333
937.0	0.6885578876100203
938.0	0.6878808395396073
939.0	0.6872037914691943
939.0	0.6872037914691943
941.0	0.6858496953283684
941.0	0.6858496953283684
944.0	0.6844955991875423
944.0	0.6844955991875423
944.0	0.6844955991875423
945.0	0.6824644549763034
946.0	0.6817874069058903
946.0	0.6817874069058903
946.0	0.6817874069058903
946.0	0.6817874069058903
947.0	0.6790792146242384
947.0	0.6790792146242384
947.0	0.6790792146242384
948.0	0.6770480704129993
949.0	0.6763710223425863
950.0	0.6756939742721734
950.0	0.6756939742721734
950.0	0.6756939742721734
953.0	0.6736628300609343
953.0	0.6736628300609343
954.0	0.6723087339201084
955.0	0.6716316858496953
955.0	0.6716316858496953
956.0	0.6702775897088693
957.0	0.6696005416384563
957.0	0.6696005416384563
957.0	0.6696005416384563
959.0	0.6675693974272173
961.0	0.6668923493568043
962.0	0.6662153012863913
963.0	0.6655382532159784
964.0	0.6648612051455653
964.0	0.6648612051455653
964.0	0.6648612051455653
967.0	0.6628300609343263
967.0	0.6628300609343263
968.0	0.6614759647935003
968.0	0.6614759647935003
969.0	0.6601218686526743
970.0	0.6594448205822614
971.0	0.6587677725118484
972.0	0.6580907244414353
972.0	0.6580907244414353
972.0	0.6580907244414353
973.0	0.6560595802301964
974.0	0.6553825321597834
975.0	0.6547054840893703
977.0	0.6540284360189573
979.0	0.6533513879485443
980.0	0.6526743398781314
980.0	0.6526743398781314
981.0	0.6513202437373053
981.0	0.6513202437373053
982.0	0.6499661475964793
984.0	0.6492890995260664
985.0	0.6486120514556534
987.0	0.6479350033852403
988.0	0.6472579553148273
993.0	0.6465809072444143
997.0	0.6459038591740014
1003.0	0.6452268111035884
1008.0	0.6445497630331753
1028.0	0.6438727149627623
1034.0	0.6431956668923493
1037.0	0.6425186188219364
1042.0	0.6418415707515234
1045.0	0.6411645226811103
1048.0	0.6404874746106973
1050.0	0.6398104265402843
1052.0	0.6391333784698714
1053.0	0.6384563303994584
1053.0	0.6384563303994584
1055.0	0.6371022342586323
1057.0	0.6364251861882194
1058.0	0.6357481381178064
1059.0	0.6350710900473934
1061.0	0.6343940419769803
1062.0	0.6337169939065673
1062.0	0.6337169939065673
1063.0	0.6323628977657414
1063.0	0.6323628977657414
1063.0	0.6323628977657414
1064.0	0.6303317535545023
1069.0	0.6296547054840894
1072.0	0.6289776574136764
1073.0	0.6283006093432634
1074.0	0.6276235612728503
1074.0	0.6276235612728503
1080.0	0.6262694651320244
1080.0	0.6262694651320244
1080.0	0.6262694651320244
1080.0	0.6262694651320244
1085.0	0.6235612728503723
1085.0	0.6235612728503723
1086.0	0.6222071767095464
1087.0	0.6215301286391334
1088.0	0.6208530805687204
1090.0	0.6201760324983073
1090.0	0.6201760324983073
1091.0	0.6188219363574814
1091.0	0.6188219363574814
1092.0	0.6174678402166554
1093.0	0.6167907921462423
1093.0	0.6167907921462423
1093.0	0.6167907921462423
1095.0	0.6147596479350034
1095.0	0.6147596479350034
1095.0	0.6147596479350034
1095.0	0.6147596479350034
1098.0	0.6120514556533514
1098.0	0.6120514556533514
1098.0	0.6120514556533514
1100.0	0.6100203114421124
1103.0	0.6093432633716994
1110.0	0.6086662153012864
1111.0	0.6079891672308734
1111.0	0.6079891672308734
1120.0	0.6066350710900474
1122.0	0.6059580230196344
1153.0	0.6052809749492214
1157.0	0.6046039268788084
1158.0	0.6039268788083954
1158.0	0.6039268788083954
1158.0	0.6039268788083954
1166.0	0.6018957345971564
1167.0	0.6012186865267434
1170.0	0.6005416384563304
1173.0	0.5998645903859174
1175.0	0.5991875423155044
1175.0	0.5991875423155044
1179.0	0.5978334461746784
1180.0	0.5971563981042654
1185.0	0.5964793500338524
1185.0	0.5964793500338524
1186.0	0.5951252538930264
1187.0	0.5944482058226134
1188.0	0.5937711577522004
1189.0	0.5930941096817874
1193.0	0.5924170616113744
1193.0	0.5924170616113744
1194.0	0.5910629654705484
1195.0	0.5903859174001355
1195.0	0.5903859174001355
1195.0	0.5903859174001355
1195.0	0.5903859174001355
1195.0	0.5903859174001355
1197.0	0.5870006770480705
1197.0	0.5870006770480705
1200.0	0.5856465809072444
1202.0	0.5849695328368314
1204.0	0.5842924847664184
1207.0	0.5836154366960055
1208.0	0.5829383886255924
1210.0	0.5822613405551794
1211.0	0.5815842924847664
1212.0	0.5809072444143534
1216.0	0.5802301963439405
1217.0	0.5795531482735274
1222.0	0.5788761002031144
1225.0	0.5781990521327014
1228.0	0.5775220040622884
1232.0	0.5768449559918755
1234.0	0.5761679079214624
1241.0	0.5754908598510494
1250.0	0.5748138117806364
1264.0	0.5741367637102234
1275.0	0.5734597156398105
1278.0	0.5727826675693974
1278.0	0.5727826675693974
1281.0	0.5714285714285714
1292.0	0.5707515233581584
1294.0	0.5700744752877455
1295.0	0.5693974272173324
1299.0	0.5687203791469194
1299.0	0.5687203791469194
1305.0	0.5673662830060935
1305.0	0.5673662830060935
1307.0	0.5660121868652674
1309.0	0.5653351387948544
1311.0	0.5646580907244414
1311.0	0.5646580907244414
1312.0	0.5633039945836155
1317.0	0.5626269465132024
1320.0	0.5619498984427894
1327.0	0.5612728503723764
1328.0	0.5605958023019635
1329.0	0.5599187542315505
1331.0	0.5592417061611374
1331.0	0.5592417061611374
1332.0	0.5578876100203114
1335.0	0.5572105619498985
1335.0	0.5572105619498985
1338.0	0.5558564658090724
1340.0	0.5551794177386594
1345.0	0.5545023696682464
1346.0	0.5538253215978335
1347.0	0.5531482735274205
1349.0	0.5524712254570074
1360.0	0.5517941773865944
1365.0	0.5511171293161814
1368.0	0.5504400812457685
1380.0	0.5497630331753555
1397.0	0.5490859851049424
1400.0	0.5484089370345294
1410.0	0.5477318889641164
1412.0	0.5470548408937035
1413.0	0.5463777928232905
1414.0	0.5457007447528774
1415.0	0.5450236966824644
1415.0	0.5450236966824644
1417.0	0.5436696005416385
1417.0	0.5436696005416385
1421.0	0.5423155044008124
1422.0	0.5416384563303994
1427.0	0.5409614082599865
1431.0	0.5402843601895735
1433.0	0.5396073121191605
1434.0	0.5389302640487474
1435.0	0.5382532159783344
1435.0	0.5382532159783344
1437.0	0.5368991198375085
1438.0	0.5362220717670955
1443.0	0.5355450236966824
1444.0	0.5348679756262694
1444.0	0.5348679756262694
1447.0	0.5335138794854435
1448.0	0.5328368314150305
1451.0	0.5321597833446174
1452.0	0.5314827352742044
1454.0	0.5308056872037915
1461.0	0.5301286391333785
1462.0	0.5294515910629655
1464.0	0.5287745429925524
1469.0	0.5280974949221394
1485.0	0.5274204468517265
1488.0	0.5267433987813135
1490.0	0.5260663507109005
1515.0	0.5253893026404874
1520.0	0.5247122545700744
1522.0	0.5240352064996615
1528.0	0.5233581584292485
1532.0	0.5226811103588355
1537.0	0.5220040622884224
1540.0	0.5213270142180095
1547.0	0.5206499661475965
1547.0	0.5206499661475965
1549.0	0.5192958700067705
1554.0	0.5186188219363574
1557.0	0.5179417738659445
1557.0	0.5179417738659445
1558.0	0.5165876777251185
1561.0	0.5159106296547055
1565.0	0.5152335815842924
1567.0	0.5145565335138795
1568.0	0.5138794854434665
1568.0	0.5138794854434665
1569.0	0.5125253893026405
1570.0	0.5118483412322274
1574.0	0.5111712931618145
1574.0	0.5111712931618145
1586.0	0.5098171970209885
1588.0	0.5091401489505755
1590.0	0.5084631008801624
1594.0	0.5077860528097495
1599.0	0.5071090047393365
1602.0	0.5064319566689235
1604.0	0.5057549085985105
1636.0	0.5050778605280974
1656.0	0.5044008124576845
1661.0	0.5037237643872715
1664.0	0.5030467163168585
1667.0	0.5023696682464455
1667.0	0.5023696682464455
1668.0	0.5010155721056195
1669.0	0.5003385240352065
1673.0	0.4996614759647935
1673.0	0.4996614759647935
1675.0	0.4983073798239675
1677.0	0.4976303317535545
1679.0	0.4969532836831415
1680.0	0.4962762356127285
1681.0	0.4955991875423155
1686.0	0.4949221394719025
1691.0	0.4942450914014895
1702.0	0.4935680433310765
1712.0	0.4928909952606635
1713.0	0.4922139471902505
1715.0	0.4915368991198375
1718.0	0.49085985104942453
1723.0	0.4901828029790115
1727.0	0.4895057549085985
1742.0	0.4888287068381855
1745.0	0.4881516587677725
1751.0	0.48747461069735953
1756.0	0.4867975626269465
1761.0	0.4861205145565335
1762.0	0.4854434664861205
1768.0	0.4847664184157075
1769.0	0.48408937034529453
1770.0	0.4834123222748815
1770.0	0.4834123222748815
1773.0	0.4820582261340555
1774.0	0.4813811780636425
1781.0	0.48070412999322953
1783.0	0.4800270819228165
1788.0	0.47935003385240355
1788.0	0.47935003385240355
1788.0	0.47935003385240355
1789.0	0.47731888964116453
1789.0	0.47731888964116453
1793.0	0.47596479350033855
1793.0	0.47596479350033855
1795.0	0.4746106973595125
1796.0	0.47393364928909953
1802.0	0.4732566012186865
1806.0	0.47257955314827355
1809.0	0.4719025050778605
1810.0	0.4712254570074475
1826.0	0.47054840893703453
1826.0	0.47054840893703453
1826.0	0.47054840893703453
1845.0	0.4685172647257955
1846.0	0.46784021665538256
1850.0	0.46716316858496953
1854.0	0.4664861205145565
1867.0	0.46580907244414355
1867.0	0.46580907244414355
1881.0	0.46445497630331756
1884.0	0.46377792823290453
1887.0	0.4631008801624915
1888.0	0.46242383209207855
1888.0	0.46242383209207855
1891.0	0.46106973595125256
1907.0	0.46039268788083954
1910.0	0.4597156398104265
1911.0	0.45903859174001355
1916.0	0.4583615436696005
1917.0	0.45768449559918756
1923.0	0.45700744752877454
1924.0	0.45633039945836157
1928.0	0.45565335138794855
1931.0	0.4549763033175355
1943.0	0.45429925524712256
1944.0	0.45362220717670954
1947.0	0.45294515910629657
1952.0	0.45226811103588355
1954.0	0.4515910629654705
1974.0	0.45091401489505756
1974.0	0.45091401489505756
1982.0	0.44955991875423157
1984.0	0.44888287068381855
1994.0	0.4482058226134055
2009.0	0.44752877454299256
2017.0	0.44685172647257954
2018.0	0.44617467840216657
2019.0	0.44549763033175355
2025.0	0.4448205822613406
2027.0	0.44414353419092756
2030.0	0.44346648612051454
2039.0	0.44278943805010157
2040.0	0.44211238997968855
2040.0	0.44211238997968855
2041.0	0.44075829383886256
2047.0	0.44008124576844954
2061.0	0.43940419769803657
2072.0	0.43872714962762355
2101.0	0.4380501015572106
2120.0	0.43737305348679756
2124.0	0.43669600541638454
2129.0	0.43601895734597157
2144.0	0.43534190927555855
2146.0	0.4346648612051456
2146.0	0.4346648612051456
2150.0	0.4333107650643196
2151.0	0.43263371699390657
2152.0	0.43195666892349355
2160.0	0.4312796208530806
2162.0	0.43060257278266756
2162.0	0.43060257278266756
2168.0	0.42924847664184157
2172.0	0.42857142857142855
2173.0	0.4278943805010156
2176.0	0.42721733243060256
2184.0	0.4265402843601896
2198.0	0.42586323628977657
2199.0	0.42518618821936355
2201.0	0.4245091401489506
2203.0	0.42383209207853756
2217.0	0.4231550440081246
2232.0	0.42247799593771157
2242.0	0.4218009478672986
2246.0	0.4211238997968856
2255.0	0.42044685172647256
2259.0	0.4197698036560596
2261.0	0.41909275558564657
2267.0	0.4184157075152336
2268.0	0.4177386594448206
2276.0	0.41706161137440756
2290.0	0.4163845633039946
2312.0	0.41570751523358157
2324.0	0.4150304671631686
2333.0	0.4143534190927556
2343.0	0.41367637102234256
2344.0	0.4129993229519296
2369.0	0.41232227488151657
2382.0	0.4116452268111036
2384.0	0.4109681787406906
2385.0	0.4102911306702776
2386.0	0.4096140825998646
2390.0	0.40893703452945157
2396.0	0.4082599864590386
2398.0	0.4075829383886256
2407.0	0.4069058903182126
2421.0	0.4062288422477996
2423.0	0.40555179417738657
2424.0	0.4048747461069736
2459.0	0.4041976980365606
2463.0	0.4035206499661476
2480.0	0.4028436018957346
2483.0	0.40216655382532157
2484.0	0.4014895057549086
2505.0	0.4008124576844956
2511.0	0.4001354096140826
2516.0	0.3994583615436696
2527.0	0.3987813134732566
2552.0	0.3981042654028436
2558.0	0.3974272173324306
2595.0	0.3967501692620176
2613.0	0.3960731211916046
2613.0	0.3960731211916046
2626.0	0.3947190250507786
2630.0	0.3940419769803656
2631.0	0.3933649289099526
2631.0	0.3933649289099526
2636.0	0.3920108327691266
2641.0	0.3913337846987136
2646.0	0.3906567366283006
2667.0	0.3899796885578876
2671.0	0.3893026404874746
2690.0	0.3886255924170616
2696.0	0.3879485443466486
2711.0	0.38727149627623564
2717.0	0.3865944482058226
2722.0	0.3859174001354096
2728.0	0.3852403520649966
2731.0	0.3845633039945836
2738.0	0.38388625592417064
2747.0	0.3832092078537576
2787.0	0.3825321597833446
2790.0	0.3818551117129316
2792.0	0.3811780636425186
2792.0	0.3811780636425186
2801.0	0.3798239675016926
2875.0	0.3791469194312796
2877.0	0.3784698713608666
2899.0	0.3777928232904536
2900.0	0.37711577522004064
2901.0	0.3764387271496276
2905.0	0.37576167907921465
2906.0	0.37508463100880163
2915.0	0.3744075829383886
2919.0	0.37373053486797564
2920.0	0.3730534867975626
2966.0	0.37237643872714965
2967.0	0.37169939065673663
2970.0	0.3710223425863236
2972.0	0.37034529451591064
2991.0	0.3696682464454976
2994.0	0.36899119837508465
2996.0	0.36831415030467163
3012.0	0.3676371022342586
3018.0	0.36696005416384564
3050.0	0.3662830060934326
3061.0	0.36560595802301965
3079.0	0.36492890995260663
3109.0	0.36425186188219366
3119.0	0.36357481381178064
3125.0	0.3628977657413676
3129.0	0.36222071767095465
3132.0	0.36154366960054163
3135.0	0.36086662153012866
3216.0	0.36018957345971564
3220.0	0.3595125253893026
3236.0	0.35883547731888965
3242.0	0.35815842924847663
3268.0	0.35748138117806366
3279.0	0.35680433310765064
3297.0	0.3561272850372376
3317.0	0.35545023696682465
3344.0	0.35477318889641163
3346.0	0.35409614082599866
3368.0	0.35341909275558564
3384.0	0.3527420446851727
3424.0	0.35206499661475965
3429.0	0.35138794854434663
3455.0	0.35071090047393366
3459.0	0.35003385240352064
3462.0	0.3493568043331077
3474.0	0.34867975626269465
3480.0	0.34800270819228163
3485.0	0.34732566012186866
3493.0	0.34664861205145564
3499.0	0.3459715639810427
3529.0	0.34529451591062965
3532.0	0.34461746784021663
3547.0	0.34394041976980366
3560.0	0.34326337169939064
3560.0	0.34326337169939064
3561.0	0.34190927555856465
3568.0	0.3412322274881517
3592.0	0.34055517941773866
3601.0	0.33987813134732564
3605.0	0.3392010832769127
3613.0	0.33852403520649965
3634.0	0.3378469871360867
3665.0	0.33716993906567366
3669.0	0.33649289099526064
3691.0	0.3358158429248477
3705.0	0.33513879485443465
3713.0	0.3344617467840217
3786.0	0.33378469871360866
3790.0	0.33310765064319564
3805.0	0.3324306025727827
3839.0	0.33175355450236965
3869.0	0.3310765064319567
3871.0	0.33039945836154366
3894.0	0.3297224102911307
3896.0	0.3290453622207177
3905.0	0.32836831415030465
3917.0	0.3276912660798917
3960.0	0.32701421800947866
3962.0	0.3263371699390657
3967.0	0.3256601218686527
3971.0	0.32498307379823965
3978.0	0.3243060257278267
3994.0	0.32362897765741366
4025.0	0.3229519295870007
4051.0	0.3222748815165877
4069.0	0.32159783344617465
4088.0	0.3209207853757617
4141.0	0.32024373730534866
4183.0	0.3195666892349357
4223.0	0.3188896411645227
4226.0	0.3182125930941097
4280.0	0.3175355450236967
4320.0	0.31685849695328366
4329.0	0.3161814488828707
4368.0	0.3155044008124577
4394.0	0.3148273527420447
4411.0	0.3141503046716317
4421.0	0.31347325660121866
4440.0	0.3127962085308057
4442.0	0.3121191604603927
4515.0	0.3114421123899797
4539.0	0.3107650643195667
4556.0	0.31008801624915366
4637.0	0.3094109681787407
4677.0	0.3087339201083277
4752.0	0.3080568720379147
4805.0	0.3073798239675017
4882.0	0.3067027758970887
4887.0	0.3060257278266757
4955.0	0.3053486797562627
4993.0	0.3046716316858497
5010.0	0.3039945836154367
5031.0	0.3033175355450237
5038.0	0.3026404874746107
5046.0	0.3019634394041977
5046.0	0.3019634394041977
5113.0	0.3006093432633717
5130.0	0.2999322951929587
5160.0	0.2992552471225457
5175.0	0.2985781990521327
5212.0	0.2979011509817197
5227.0	0.2972241029113067
5250.0	0.2965470548408937
5272.0	0.2958700067704807
5274.0	0.29519295870006773
5275.0	0.2945159106296547
5370.0	0.2938388625592417
5378.0	0.2931618144888287
5399.0	0.2924847664184157
5402.0	0.29180771834800273
5406.0	0.2911306702775897
5424.0	0.2904536222071767
5465.0	0.2897765741367637
5498.0	0.2890995260663507
5499.0	0.28842247799593773
5501.0	0.2877454299255247
5506.0	0.2870683818551117
5544.0	0.2863913337846987
5569.0	0.2857142857142857
5625.0	0.28503723764387273
5647.0	0.2843601895734597
5662.0	0.28368314150304674
5682.0	0.2830060934326337
5715.0	0.2823290453622207
5717.0	0.28165199729180773
5725.0	0.2809749492213947
5742.0	0.28029790115098174
5916.0	0.2796208530805687
5953.0	0.2789438050101557
6016.0	0.27826675693974273
6030.0	0.2775897088693297
6060.0	0.27691266079891674
6063.0	0.2762356127285037
6074.0	0.2755585646580907
6095.0	0.27488151658767773
6137.0	0.2742044685172647
6170.0	0.27352742044685174
6178.0	0.2728503723764387
6199.0	0.27217332430602575
6228.0	0.27149627623561273
6297.0	0.2708192281651997
6328.0	0.27014218009478674
6365.0	0.2694651320243737
6391.0	0.26878808395396075
6431.0	0.26811103588354773
6446.0	0.2674339878131347
6458.0	0.26675693974272174
6480.0	0.2660798916723087
6516.0	0.26540284360189575
6539.0	0.26472579553148273
6540.0	0.2640487474610697
6540.0	0.2640487474610697
6569.0	0.2626946513202437
6569.0	0.2626946513202437
6582.0	0.26134055517941773
6609.0	0.26066350710900477
6624.0	0.25998645903859174
6646.0	0.2593094109681787
6677.0	0.25863236289776576
6678.0	0.25795531482735273
6710.0	0.25727826675693977
6710.0	0.25727826675693977
6788.0	0.2559241706161137
6830.0	0.25524712254570076
6885.0	0.25457007447528773
6900.0	0.25389302640487477
6914.0	0.25321597833446174
6931.0	0.2525389302640487
6947.0	0.25186188219363576
6949.0	0.25118483412322273
6952.0	0.25050778605280977
6986.0	0.24983073798239674
7061.0	0.24915368991198375
7067.0	0.24847664184157076
7077.0	0.24779959377115776
7108.0	0.24712254570074474
7153.0	0.24644549763033174
7165.0	0.24576844955991875
7265.0	0.24509140148950576
7300.0	0.24441435341909276
7306.0	0.24373730534867977
7307.0	0.24306025727826674
7370.0	0.24238320920785375
7393.0	0.24170616113744076
7394.0	0.24102911306702776
7412.0	0.24035206499661477
7427.0	0.23967501692620177
7429.0	0.23899796885578875
7432.0	0.23832092078537576
7448.0	0.23764387271496276
7469.0	0.23696682464454977
7491.0	0.23628977657413677
7492.0	0.23561272850372375
7513.0	0.23493568043331076
7522.0	0.23425863236289776
7533.0	0.23358158429248477
7551.0	0.23290453622207177
7568.0	0.23222748815165878
7608.0	0.23155044008124576
7666.0	0.23087339201083276
7668.0	0.23019634394041977
7688.0	0.22951929587000677
7691.0	0.22884224779959378
7719.0	0.22816519972918078
7719.0	0.22816519972918078
7751.0	0.22681110358835477
7782.0	0.22613405551794177
7786.0	0.22545700744752878
7789.0	0.22477995937711578
7794.0	0.22410291130670276
7852.0	0.22342586323628977
7857.0	0.22274881516587677
7929.0	0.22207176709546378
7985.0	0.22139471902505078
7995.0	0.2207176709546378
8014.0	0.22004062288422477
8046.0	0.21936357481381177
8116.0	0.21868652674339878
8117.0	0.21800947867298578
8123.0	0.2173324306025728
8224.0	0.2166553825321598
8259.0	0.21597833446174677
8287.0	0.21530128639133378
8303.0	0.21462423832092078
8306.0	0.2139471902505078
8403.0	0.2132701421800948
8427.0	0.21259309410968177
8438.0	0.21191604603926878
8513.0	0.21123899796885579
8554.0	0.2105619498984428
8563.0	0.2098849018280298
8698.0	0.2092078537576168
8707.0	0.20853080568720378
8766.0	0.20785375761679079
8776.0	0.2071767095463778
8815.0	0.2064996614759648
8879.0	0.2058226134055518
8924.0	0.2051455653351388
8966.0	0.20446851726472579
8994.0	0.2037914691943128
9000.0	0.2031144211238998
9018.0	0.2024373730534868
9040.0	0.2017603249830738
9047.0	0.20108327691266079
9115.0	0.2004062288422478
9145.0	0.1997291807718348
9176.0	0.1990521327014218
9218.0	0.1983750846310088
9233.0	0.1976980365605958
9242.0	0.1970209884901828
9319.0	0.1963439404197698
9348.0	0.1956668923493568
9349.0	0.1949898442789438
9359.0	0.1943127962085308
9441.0	0.19363574813811782
9458.0	0.1929587000677048
9466.0	0.1922816519972918
9476.0	0.1916046039268788
9577.0	0.1909275558564658
9596.0	0.19025050778605282
9639.0	0.1895734597156398
9671.0	0.1888964116452268
9721.0	0.1882193635748138
9727.0	0.18754231550440081
9732.0	0.18686526743398782
9758.0	0.18618821936357483
9770.0	0.1855111712931618
9798.0	0.1848341232227488
9839.0	0.18415707515233581
9876.0	0.18348002708192282
9907.0	0.18280297901150983
9962.0	0.18212593094109683
9967.0	0.1814488828706838
9971.0	0.18077183480027081
9988.0	0.18009478672985782
10093.0	0.17941773865944483
10131.0	0.17874069058903183
10155.0	0.1780636425186188
10159.0	0.17738659444820581
10168.0	0.17670954637779282
10171.0	0.17603249830737983
10187.0	0.17535545023696683
10198.0	0.17467840216655384
10202.0	0.17400135409614081
10288.0	0.17332430602572782
10341.0	0.17264725795531483
10357.0	0.17197020988490183
10373.0	0.17129316181448884
10454.0	0.17061611374407584
10532.0	0.16993906567366282
10580.0	0.16926201760324983
10740.0	0.16858496953283683
10889.0	0.16790792146242384
10892.0	0.16723087339201084
10901.0	0.16655382532159782
10929.0	0.16587677725118483
10998.0	0.16519972918077183
11145.0	0.16452268111035884
11146.0	0.16384563303994584
11181.0	0.16316858496953285
11287.0	0.16249153689911983
11295.0	0.16181448882870683
11390.0	0.16113744075829384
11393.0	0.16046039268788084
11408.0	0.15978334461746785
11427.0	0.15910629654705485
11442.0	0.15842924847664183
11511.0	0.15775220040622884
11537.0	0.15707515233581584
11597.0	0.15639810426540285
11635.0	0.15572105619498985
11661.0	0.15504400812457683
11827.0	0.15436696005416384
11890.0	0.15368991198375084
11897.0	0.15301286391333785
12010.0	0.15233581584292485
12025.0	0.15165876777251186
12068.0	0.15098171970209884
12070.0	0.15030467163168584
12177.0	0.14962762356127285
12202.0	0.14895057549085985
12234.0	0.14827352742044686
12284.0	0.14759647935003387
12287.0	0.14691943127962084
12339.0	0.14624238320920785
12364.0	0.14556533513879485
12379.0	0.14488828706838186
12435.0	0.14421123899796887
12538.0	0.14353419092755584
12637.0	0.14285714285714285
12637.0	0.14285714285714285
12718.0	0.14150304671631686
12816.0	0.14082599864590387
12822.0	0.14014895057549087
12896.0	0.13947190250507785
12905.0	0.13879485443466485
12905.0	0.13879485443466485
12982.0	0.13744075829383887
12990.0	0.13676371022342587
13050.0	0.13608666215301288
13070.0	0.13540961408259986
13138.0	0.13473256601218686
13143.0	0.13405551794177387
13189.0	0.13337846987136087
13323.0	0.13270142180094788
13398.0	0.13202437373053486
13434.0	0.13134732566012186
13450.0	0.13067027758970887
13468.0	0.12999322951929587
13560.0	0.12931618144888288
13713.0	0.12863913337846988
13754.0	0.12796208530805686
13937.0	0.12728503723764387
13986.0	0.12660798916723087
13988.0	0.12593094109681788
13989.0	0.12525389302640488
14111.0	0.12457684495599188
14126.0	0.12389979688557888
14140.0	0.12322274881516587
14144.0	0.12254570074475288
14202.0	0.12186865267433988
14249.0	0.12119160460392688
14309.0	0.12051455653351388
14418.0	0.11983750846310089
14435.0	0.11916046039268788
14523.0	0.11848341232227488
14573.0	0.11780636425186188
14592.0	0.11712931618144888
14604.0	0.11645226811103589
14711.0	0.11577522004062288
14714.0	0.11509817197020988
14756.0	0.11442112389979689
14853.0	0.11374407582938388
14942.0	0.11306702775897089
14968.0	0.11238997968855789
15058.0	0.11171293161814488
15160.0	0.11103588354773189
15186.0	0.1103588354773189
15226.0	0.10968178740690589
15295.0	0.10900473933649289
15422.0	0.1083276912660799
15446.0	0.10765064319566689
15521.0	0.1069735951252539
15550.0	0.10629654705484089
15633.0	0.10561949898442789
15707.0	0.1049424509140149
16021.0	0.10426540284360189
16067.0	0.1035883547731889
16118.0	0.1029113067027759
16121.0	0.10223425863236289
16137.0	0.1015572105619499
16202.0	0.1008801624915369
16224.0	0.1002031144211239
16366.0	0.0995260663507109
16507.0	0.0988490182802979
16515.0	0.0981719702098849
16584.0	0.0974949221394719
16600.0	0.09681787406905891
16851.0	0.0961408259986459
16963.0	0.0954637779282329
17103.0	0.0947867298578199
17117.0	0.0941096817874069
17207.0	0.09343263371699391
17232.0	0.0927555856465809
17337.0	0.09207853757616791
17446.0	0.09140148950575491
17454.0	0.0907244414353419
17479.0	0.09004739336492891
17484.0	0.08937034529451592
17494.0	0.08869329722410291
17592.0	0.08801624915368991
17693.0	0.08733920108327692
17694.0	0.08666215301286391
17767.0	0.08598510494245092
17920.0	0.08530805687203792
17994.0	0.08463100880162491
18010.0	0.08395396073121192
18168.0	0.08327691266079891
18219.0	0.08259986459038592
18268.0	0.08192281651997292
18276.0	0.08124576844955991
18282.0	0.08056872037914692
18405.0	0.07989167230873392
18412.0	0.07921462423832092
18480.0	0.07853757616790792
18499.0	0.07786052809749493
18513.0	0.07718348002708192
18515.0	0.07650643195666892
18517.0	0.07582938388625593
18532.0	0.07515233581584292
18657.0	0.07447528774542993
18737.0	0.07379823967501693
18892.0	0.07312119160460392
18978.0	0.07244414353419093
18994.0	0.07176709546377792
19053.0	0.07109004739336493
19119.0	0.07041299932295193
19135.0	0.06973595125253892
19392.0	0.06905890318212593
19496.0	0.06838185511171294
19506.0	0.06770480704129993
19510.0	0.06702775897088693
19630.0	0.06635071090047394
19755.0	0.06567366283006093
19757.0	0.06499661475964794
19770.0	0.06431956668923494
19814.0	0.06364251861882193
19856.0	0.06296547054840894
20103.0	0.06228842247799594
20223.0	0.061611374407582936
20242.0	0.06093432633716994
20251.0	0.06025727826675694
20304.0	0.05958023019634394
20346.0	0.05890318212593094
20544.0	0.05822613405551794
20589.0	0.05754908598510494
20703.0	0.05687203791469194
20724.0	0.056194989844278946
20763.0	0.055517941773865945
20764.0	0.05484089370345294
20823.0	0.05416384563303995
20847.0	0.05348679756262695
20925.0	0.052809749492213946
21126.0	0.052132701421800945
21175.0	0.05145565335138795
21257.0	0.05077860528097495
21471.0	0.05010155721056195
21686.0	0.04942450914014895
21690.0	0.04874746106973595
21718.0	0.04807041299932295
21776.0	0.04739336492890995
21823.0	0.046716316858496955
21978.0	0.046039268788083954
21991.0	0.04536222071767095
22285.0	0.04468517264725796
22383.0	0.044008124576844956
22481.0	0.043331076506431955
22528.0	0.04265402843601896
22549.0	0.04197698036560596
22612.0	0.04129993229519296
22689.0	0.040622884224779957
22716.0	0.03994583615436696
22718.0	0.03926878808395396
22955.0	0.03859174001354096
22995.0	0.037914691943127965
23035.0	0.037237643872714964
23043.0	0.03656059580230196
23103.0	0.03588354773188896
23168.0	0.035206499661475966
23482.0	0.034529451591062965
23666.0	0.033852403520649964
23678.0	0.03317535545023697
23794.0	0.03249830737982397
24078.0	0.03182125930941097
24112.0	0.03114421123899797
24159.0	0.03046716316858497
24183.0	0.02979011509817197
24622.0	0.02911306702775897
24958.0	0.02843601895734597
25124.0	0.027758970886932972
25990.0	0.027081922816519974
26441.0	0.026404874746106973
26602.0	0.025727826675693975
26656.0	0.025050778605280974
27044.0	0.024373730534867976
27045.0	0.023696682464454975
27144.0	0.023019634394041977
27320.0	0.02234258632362898
27373.0	0.021665538253215978
27379.0	0.02098849018280298
27395.0	0.020311442112389978
27488.0	0.01963439404197698
27536.0	0.018957345971563982
27641.0	0.01828029790115098
28607.0	0.017603249830737983
28740.0	0.016926201760324982
29352.0	0.016249153689911984
29418.0	0.015572105619498984
29590.0	0.014895057549085985
29725.0	0.014218009478672985
30002.0	0.013540961408259987
30598.0	0.012863913337846988
31037.0	0.012186865267433988
31272.0	0.011509817197020988
32645.0	0.010832769126607989
33230.0	0.010155721056194989
33244.0	0.009478672985781991
33856.0	0.008801624915368992
34022.0	0.008124576844955992
34590.0	0.007447528774542992
34930.0	0.006770480704129994
35142.0	0.006093432633716994
35297.0	0.005416384563303994
35323.0	0.004739336492890996
36278.0	0.004062288422477996
38123.0	0.003385240352064997
38340.0	0.002708192281651997
38898.0	0.002031144211238998
40248.0	0.0013540961408259986
42291.0	6.770480704129993E-4
